<svg xmlns="http://www.w3.org/2000/svg" viewBox="0 0 512 512" style="enable-background:new 0 0 512 512" xml:space="preserve">
    <path d="M448 85.3h-53.5L328.7 0H183.3l-65.8 85.3H64c-35.3 0-64 28.7-64 64V512h512V149.3c0-35.3-28.7-64-64-64zM204.3 42.7h103.4l32.9 42.7H171.4l32.9-42.7zm265 426.6H42.7v-320c0-11.8 9.6-21.3 21.3-21.3h384c11.8 0 21.3 9.6 21.3 21.3v320z" style="fill:#8ec321"/>
    <path d="M256 170.7c-70.7 0-128 57.3-128 128s57.3 128 128 128 128-57.3 128-128c-.1-70.7-57.3-128-128-128zm0 213.3c-47.1 0-85.3-38.2-85.3-85.3s38.2-85.3 85.3-85.3 85.3 38.2 85.3 85.3S303.1 384 256 384z" style="fill:#8ec321"/>
</svg>
