<svg xmlns="http://www.w3.org/2000/svg" viewBox="0 0 58.72 58.72">
    <g data-name="Capa 2">
        <path d="M58.72 6.29v46.14a6.29 6.29 0 0 1-6.29 6.29H6.29A6.29 6.29 0 0 1 0 52.43V6.29A6.29 6.29 0 0 1 6.29 0h46.14a6.29 6.29 0 0 1 6.29 6.29zm-8.39 10.07a16.86 16.86 0 0 1-4.95 1.33A8.53 8.53 0 0 0 49.15 13a16.5 16.5 0 0 1-5.45 2A8.62 8.62 0 0 0 29 22.89a24.43 24.43 0 0 1-17.72-9 8.49 8.49 0 0 0-1.17 4.34A9.61 9.61 0 0 0 14 25.39a8.6 8.6 0 0 1-3.88-1.09v.11A8.6 8.6 0 0 0 17 32.85a9.27 9.27 0 0 1-3.88.15 8.62 8.62 0 0 0 8 6 17.29 17.29 0 0 1-10.67 3.67 17.71 17.71 0 0 1-2.07-.11 24.32 24.32 0 0 0 13.2 3.86c15.81 0 24.46-13.1 24.46-24.46v-1.12a17.7 17.7 0 0 0 4.29-4.48z" style="fill:#39443e" data-name="call center"/>
    </g>
</svg>
