<svg xmlns="http://www.w3.org/2000/svg" viewBox="0 0 58.72 58.72">
    <g data-name="Capa 2">
        <path d="M58.72 6.29v46.14a6.29 6.29 0 0 1-6.29 6.29h-18v-20H42l1.44-9.4h-9v-6.1c0-2.57 1.26-5.08 5.3-5.08h4.1v-8a49.62 49.62 0 0 0-7.28-.64c-7.43 0-12.28 4.5-12.28 12.65v7.16H16v9.4h8.26v20h-18A6.29 6.29 0 0 1 0 52.43V6.29A6.29 6.29 0 0 1 6.29 0h46.14a6.29 6.29 0 0 1 6.29 6.29z" style="fill:#39443e" data-name="call center"/>
    </g>
</svg>
