<svg xmlns="http://www.w3.org/2000/svg" width="27" height="27">
    <path stroke="#C8C8C8" stroke-width="2" fill="none" d="M13 1c6.627 0 12 5.373 12 12s-5.373 12-12 12S1 19.627 1 13 6.373 1 13 1z"/>
</svg>
