<svg xmlns="http://www.w3.org/2000/svg" viewBox="0 0 512 512" style="enable-background:new 0 0 512 512" xml:space="preserve">
    <path d="M170.7 170.7V128h170.7v42.7H170.7zm-64 298.6c-11.8 0-21.3-9.6-21.3-21.3V64c0-11.8 9.6-21.3 21.3-21.3h320v202.7c15.8 6.7 30.3 16.2 42.7 28.2V0H106.7c-35.3 0-64 28.7-64 64v384c0 35.3 28.7 64 64 64h266.7c-37.7 0-73.8-15.4-99.8-42.7H106.7zm374.2 41.8-56.7-56.7c-15.2 9.7-32.9 14.9-50.9 14.9-53 0-96-43-96-96s43-96 96-96 96 43 96 96c0 18-5.2 35.7-14.9 50.9l56.7 56.7-30.2 30.2zm-107.6-84.4c29.5 0 53.3-23.9 53.3-53.3S402.8 320 373.3 320 320 343.9 320 373.3s23.9 53.4 53.3 53.4z" style="fill:#8ec321"/>
</svg>
