<svg xmlns="http://www.w3.org/2000/svg" viewBox="0 0 512 512" style="enable-background:new 0 0 512 512" xml:space="preserve">
    <path d="M302.9 346.9c-62.1-26.3-111.5-75.8-137.7-138l72.5-72.7L104.3 2.6 36.6 70.2C12.9 94.1-.3 126.4 0 160c0 154.6 197.4 352 352 352 33.6.3 65.9-12.9 89.7-36.6l67.6-67.6-133.6-133.7-72.8 72.8zm108.7 98.3a83.01 83.01 0 0 1-59.6 24.1C219 469.3 42.7 293 42.7 160c-.3-22.3 8.4-43.7 24.1-59.6l37.5-37.5 73.3 73.3-62.6 62.7 5.2 13.1c31.1 83.3 96.9 148.9 180.2 180l12.9 4.9 62.4-62.4 73.3 73.3-37.4 37.4zM298.7 42.7V0C416.4.1 511.9 95.6 512 213.3h-42.7c-.1-94.2-76.4-170.5-170.6-170.6zm0 85.3V85.3c70.7.1 127.9 57.3 128 128H384c0-47.1-38.2-85.3-85.3-85.3z" style="fill:#323c37"/>
</svg>
