<svg xmlns="http://www.w3.org/2000/svg" viewBox="0 0 512 512" style="enable-background:new 0 0 512 512" xml:space="preserve">
    <path style="fill:#fff" d="M512 30.2 481.8 0 256 225.8 30.2 0 0 30.2 225.8 256 0 481.8 30.2 512 256 286.2 481.8 512l30.2-30.2L286.2 256z"/>
</svg>
